{
  "version": 2,
  "builds": [{
    "src": "src/index.js",
    "use": "@now/node-server@canary",
    "config": {
      "bundle": false,
      "maxLambdaSize": "30mb"
    }
  }],
  "routes": [{ "src": "/.*", "dest": "src/index.js" }],
  "env": {
    "DB_HOST": "@migo-db-host",
    "DB_NAME": "@migo-db-name",
    "DB_USER": "@migo-db-user",
    "DB_PASSWORD": "@migo-db-password"
  }
}
